{
  "frame_time" : 100,
  "gpus": [
    {
      "name" : "i915",
      "device_path" : "/dev/dri/card0",
      "id" : 0,
      "desktop_type" : "shared",
      "displays" : [
        {
          "name" : "eDP1",
          "key" : 12,
          "x" : 0,
          "y" : 0,
          "uuid" : "00000000-0000-0000-0000-000000000001",
          "preferred_mode_index" : 0,
          "modes" : [
            { "width" : 1920,
              "height" : 1080
            },
            {
              "width" : 640,
              "height" : 480
            },
            {
              "width" : 800,
              "height" : 600
            }
          ]
        },
        {
          "name" : "HDMIA1",
          "key" : 16,
          "x" : 1920,
          "y" : 0,
          "uuid" : "a514c08a-9f7c-4c5f-9021-ca9b042dd0f8",
          "preferred_mode_index" : 0,
          "modes" : [
            { "width" : 3840,
              "height" : 2160
            },
            {
              "width" : 640,
              "height" : 480
            },
            {
              "width" : 800,
              "height" : 600
            }
          ]
        }
      ]
    }
  ]
}
